{
  "image": "tautulli/tautulli:latest",
  "container_name": "tautulli",
  "restart": "always",
  "environment": [
    "PUID=${GENERAL_UID}",
    "PGID=${GENERAL_GID}",
    "UMASK=${GENERAL_UMASK}",
    "TZ=${GENERAL_TIMEZONE}"
  ],
  "volumes": [
    "/etc/localtime:/etc/localtime:ro",
    "${CONFIG_DIR}/tautulli:/config",
    "${LOG_DIR}/tautulli:/logs"
  ],
  "labels": [
    "traefik.enable=true",
    "traefik.port=8181",
    "traefik.backend=tautulli",
    "traefik.frontend.rule=Host:${TAUTULLI_HOST}"
  ]
}